{
     "lms_ui": {
          "level": 1,
          "causes": [
               0,
               2,
               2,
               2,
               2,
               2,
               2,
               2
          ]
     },
     "lms_lib": {
          "level": 3,
          "actions": {
               "lms_ui": [
                    1
               ],
               "lms_content_player_lib": [
                    1
               ]
          },
          "causes": [
               0,
               2
          ]
     },
     "lms_content_player_lib": {
          "level": 2,
          "actions": {
               "lms_ui": [
                    1
               ]
          },
          "causes": [
               0,
               2,
               2
          ]
     },
     "lms_ui_static_resources": {
          "level": 3,
          "actions": {
               "lms_ui": [
                    0,
                    1
               ],
               "lms-announcements-ui": [
                    0,
                    1
               ]
          },
          "causes": [
               0
          ]
     },
     "lms-announcements-ui": {
          "level": 2,
          "causes": [
               2
          ]
     },
     "lms_global_ui": {
          "level": 2,
          "causes": [
               0
          ]
     },
     "olscore_db": {
          "level": 100,
          "causes": [
               0
          ]
     },
     "lms_entity_lib": {
          "level": 4,
          "actions": {
               "lms_ui": [
                    1
               ]
          },
          "causes": [
               0
          ]
     },
     "classConnect": {
          "level": 4,
          "instructions": "If wsdl was modified, need to copy it on lms_lib",
          "actions": {
               "lms_lib": [
                    1
               ]
          },
          "causes": [
               0
          ]
     },
     "bank_ingestor": {
          "level": 3,
          "causes": [
               0
          ]
     },
     "lms_ingestor": {
          "level": 3,
          "causes": [
               0
          ]
     },
     "lms_ingestor_ss_cleanup_tool": {
          "level": 1,
          "causes": [
               1
          ]
     }
}